{
	"info": {
		"_postman_id": "cbc5a5f9-cf78-45c5-88bb-f901189d7a01",
		"name": "prueba-tecnica",
		"schema": "https://schema.getpostman.com/json/collection/v2.1.0/collection.json",
		"_exporter_id": "3759412"
	},
	"item": [
		{
			"name": "customer",
			"item": [
				{
					"name": "get all customers",
					"request": {
						"method": "GET",
						"header": [],
						"url": {
							"raw": "http://localhost:8080/customers",
							"protocol": "http",
							"host": [
								"localhost"
							],
							"port": "8080",
							"path": [
								"customers"
							]
						}
					},
					"response": []
				},
				{
					"name": "create customer - Jose Lema",
					"request": {
						"method": "POST",
						"header": [],
						"body": {
							"mode": "raw",
							"raw": "{\r\n    \"name\": \"Jose Lema\",\r\n    \"gender\" :\"masculino\",\r\n    \"age\" : 23,\r\n    \"direction\": \"Otavalo sn y principal\",\r\n    \"phone\": \"098254785\",\r\n    \"password\" : \"1234\",\r\n    \"status\" : true\r\n}",
							"options": {
								"raw": {
									"language": "json"
								}
							}
						},
						"url": {
							"raw": "http://localhost:8080/customers",
							"protocol": "http",
							"host": [
								"localhost"
							],
							"port": "8080",
							"path": [
								"customers"
							]
						}
					},
					"response": []
				},
				{
					"name": "create customer - Marianela Montalvo",
					"request": {
						"method": "POST",
						"header": [],
						"body": {
							"mode": "raw",
							"raw": "{\r\n    \"name\": \"Marianela Montalvo\",\r\n    \"gender\" :\"femenino\",\r\n    \"age\" : 20,\r\n    \"direction\": \"Amazonas y NNUU\",\r\n    \"phone\": \"097548965\",\r\n    \"password\" : \"5678\",\r\n    \"status\" : true\r\n}",
							"options": {
								"raw": {
									"language": "json"
								}
							}
						},
						"url": {
							"raw": "http://localhost:8080/customers",
							"protocol": "http",
							"host": [
								"localhost"
							],
							"port": "8080",
							"path": [
								"customers"
							]
						}
					},
					"response": []
				},
				{
					"name": "create customer - Juan Osorio",
					"request": {
						"method": "POST",
						"header": [],
						"body": {
							"mode": "raw",
							"raw": "{\r\n    \"name\": \"Juan Osorio\",\r\n    \"gender\" :\"masculino\",\r\n    \"age\" : 31,\r\n    \"direction\": \"13 junio y Equinoccial\",\r\n    \"phone\": \"098874587\",\r\n    \"password\" : \"1245\",\r\n    \"status\" : true\r\n}",
							"options": {
								"raw": {
									"language": "json"
								}
							}
						},
						"url": {
							"raw": "http://localhost:8080/customers",
							"protocol": "http",
							"host": [
								"localhost"
							],
							"port": "8080",
							"path": [
								"customers"
							]
						}
					},
					"response": []
				},
				{
					"name": "update Customer",
					"request": {
						"method": "PUT",
						"header": [],
						"body": {
							"mode": "raw",
							"raw": "{\r\n    \"idPerson\": 12,\r\n    \"name\": \"Jose Lema m\",\r\n    \"gender\": \"masculino\",\r\n    \"age\": 40,\r\n    \"direction\": \"Otavalo sn y principal m\",\r\n    \"phone\": \"098254444\",\r\n    \"password\": \"1234m\",\r\n    \"status\": true\r\n}",
							"options": {
								"raw": {
									"language": "json"
								}
							}
						},
						"url": {
							"raw": "http://localhost:8080/customers",
							"protocol": "http",
							"host": [
								"localhost"
							],
							"port": "8080",
							"path": [
								"customers"
							]
						}
					},
					"response": []
				},
				{
					"name": "delete Customer",
					"request": {
						"method": "DELETE",
						"header": [],
						"url": {
							"raw": "http://localhost:8080/customers/13",
							"protocol": "http",
							"host": [
								"localhost"
							],
							"port": "8080",
							"path": [
								"customers",
								"13"
							]
						}
					},
					"response": []
				}
			]
		},
		{
			"name": "account",
			"item": [
				{
					"name": "create Account Ahorro - Jose Lema",
					"request": {
						"method": "POST",
						"header": [],
						"body": {
							"mode": "raw",
							"raw": "{\r\n    \"accountType\" : \"Ahorro\",\r\n    \"accountNumber\" : 478758,\r\n    \"customer\" : {\r\n        \"idPerson\" : 1\r\n    },\r\n    \"initialBalance\" : 2000,\r\n    \"status\" : true\r\n}",
							"options": {
								"raw": {
									"language": "json"
								}
							}
						},
						"url": {
							"raw": "http://localhost:8080/accounts",
							"protocol": "http",
							"host": [
								"localhost"
							],
							"port": "8080",
							"path": [
								"accounts"
							]
						}
					},
					"response": []
				},
				{
					"name": "create Account Corriente - Marianela Montalvo",
					"request": {
						"method": "POST",
						"header": [],
						"body": {
							"mode": "raw",
							"raw": "{\r\n    \"accountType\" : \"Corriente\",\r\n    \"accountNumber\" : 225487,\r\n    \"customer\" : {\r\n        \"idPerson\" : 2\r\n    },\r\n    \"initialBalance\" : 100,\r\n    \"status\" : true\r\n}",
							"options": {
								"raw": {
									"language": "json"
								}
							}
						},
						"url": {
							"raw": "http://localhost:8080/accounts",
							"protocol": "http",
							"host": [
								"localhost"
							],
							"port": "8080",
							"path": [
								"accounts"
							]
						}
					},
					"response": []
				},
				{
					"name": "create Account Ahorro - Juan Osorio",
					"request": {
						"method": "POST",
						"header": [],
						"body": {
							"mode": "raw",
							"raw": "{\r\n    \"accountType\" : \"Ahorro\",\r\n    \"accountNumber\" : 495878,\r\n    \"customer\" : {\r\n        \"idPerson\" : 3\r\n    },\r\n    \"initialBalance\" : 0,\r\n    \"status\" : true\r\n}",
							"options": {
								"raw": {
									"language": "json"
								}
							}
						},
						"url": {
							"raw": "http://localhost:8080/accounts",
							"protocol": "http",
							"host": [
								"localhost"
							],
							"port": "8080",
							"path": [
								"accounts"
							]
						}
					},
					"response": []
				},
				{
					"name": "create Account Ahorro - Marianela Montalvo",
					"request": {
						"method": "POST",
						"header": [],
						"body": {
							"mode": "raw",
							"raw": "{\r\n    \"accountType\" : \"Corriente\",\r\n    \"accountNumber\" : 496825,\r\n    \"customer\" : {\r\n        \"idPerson\" : 2\r\n    },\r\n    \"initialBalance\" : 540,\r\n    \"status\" : true\r\n}",
							"options": {
								"raw": {
									"language": "json"
								}
							}
						},
						"url": {
							"raw": "http://localhost:8080/accounts",
							"protocol": "http",
							"host": [
								"localhost"
							],
							"port": "8080",
							"path": [
								"accounts"
							]
						}
					},
					"response": []
				},
				{
					"name": "create Account Corriente - Jose Lema",
					"request": {
						"method": "POST",
						"header": [],
						"body": {
							"mode": "raw",
							"raw": "{\r\n    \"accountType\" : \"Corriente\",\r\n    \"accountNumber\" : 585545,\r\n    \"customer\" : {\r\n        \"idPerson\" : 1\r\n    },\r\n    \"initialBalance\" : 1000,\r\n    \"status\" : true\r\n}",
							"options": {
								"raw": {
									"language": "json"
								}
							}
						},
						"url": {
							"raw": "http://localhost:8080/accounts",
							"protocol": "http",
							"host": [
								"localhost"
							],
							"port": "8080",
							"path": [
								"accounts"
							]
						}
					},
					"response": []
				},
				{
					"name": "update Account",
					"request": {
						"method": "PUT",
						"header": [],
						"body": {
							"mode": "raw",
							"raw": "{\r\n    \"idAccount\": 2,\r\n    \"customer\": {\r\n        \"idPerson\": 1\r\n    },\r\n    \"accountType\": \"Ahorro x\",\r\n    \"accountNumber\": 478759,\r\n    \"initialBalance\": 2800,\r\n    \"status\": true\r\n}",
							"options": {
								"raw": {
									"language": "json"
								}
							}
						},
						"url": {
							"raw": "http://localhost:8080/accounts",
							"protocol": "http",
							"host": [
								"localhost"
							],
							"port": "8080",
							"path": [
								"accounts"
							]
						}
					},
					"response": []
				},
				{
					"name": "delete Account",
					"request": {
						"method": "DELETE",
						"header": [],
						"url": {
							"raw": "http://localhost:8080/accounts/8",
							"protocol": "http",
							"host": [
								"localhost"
							],
							"port": "8080",
							"path": [
								"accounts",
								"8"
							]
						}
					},
					"response": []
				}
			]
		},
		{
			"name": "movement",
			"item": [
				{
					"name": "create movement - CREDITO",
					"request": {
						"method": "POST",
						"header": [],
						"body": {
							"mode": "raw",
							"raw": "{\r\n    \"account\" : {\r\n        \"idAccount\" : 1\r\n    },\r\n    \"movementType\" :\"CREDITO\",\r\n    \"value\" : 510\r\n}",
							"options": {
								"raw": {
									"language": "json"
								}
							}
						},
						"url": {
							"raw": "http://localhost:8080/movements",
							"protocol": "http",
							"host": [
								"localhost"
							],
							"port": "8080",
							"path": [
								"movements"
							]
						}
					},
					"response": []
				},
				{
					"name": "create movement - DEBITO",
					"request": {
						"method": "POST",
						"header": [],
						"body": {
							"mode": "raw",
							"raw": "{\r\n    \"account\" : {\r\n        \"idAccount\" : 1\r\n    },\r\n    \"movementType\" :\"DEBITO\",\r\n    \"value\" : 510\r\n}",
							"options": {
								"raw": {
									"language": "json"
								}
							}
						},
						"url": {
							"raw": "http://localhost:8080/movements",
							"protocol": "http",
							"host": [
								"localhost"
							],
							"port": "8080",
							"path": [
								"movements"
							]
						}
					},
					"response": []
				},
				{
					"name": "update Movements",
					"request": {
						"method": "PUT",
						"header": [],
						"body": {
							"mode": "raw",
							"raw": "{\r\n    \"idMovement\": 11,\r\n    \"account\": {\r\n        \"idAccount\": 1\r\n    },\r\n    \"movementType\": \"CREDITO\",\r\n    \"value\": 510,\r\n    \"balance\": 720.00\r\n}",
							"options": {
								"raw": {
									"language": "json"
								}
							}
						},
						"url": {
							"raw": "http://localhost:8080/movements",
							"protocol": "http",
							"host": [
								"localhost"
							],
							"port": "8080",
							"path": [
								"movements"
							]
						}
					},
					"response": []
				},
				{
					"name": "delete Movements",
					"request": {
						"method": "DELETE",
						"header": [],
						"url": {
							"raw": "http://localhost:8080/movements/11",
							"protocol": "http",
							"host": [
								"localhost"
							],
							"port": "8080",
							"path": [
								"movements",
								"11"
							]
						}
					},
					"response": []
				}
			]
		},
		{
			"name": "report",
			"item": [
				{
					"name": "account-statement",
					"request": {
						"method": "GET",
						"header": [],
						"url": {
							"raw": "http://localhost:8080/reports/account-statement?idPerson=1&startDate=2022-12-01&endDate=2022-12-03",
							"protocol": "http",
							"host": [
								"localhost"
							],
							"port": "8080",
							"path": [
								"reports",
								"account-statement"
							],
							"query": [
								{
									"key": "idPerson",
									"value": "1"
								},
								{
									"key": "startDate",
									"value": "2022-12-01"
								},
								{
									"key": "endDate",
									"value": "2022-12-03"
								}
							]
						}
					},
					"response": []
				}
			]
		}
	]
}